{
    "@context":
            {
                "creators": {
                    "@id": "http://purl.org/dc/terms/creator",
                    "@container": "@list"
                },
                "contributors": {
                    "@id": "http://purl.org/dc/terms/contributor",
                    "@container": "@list"
                },
                "subjects": {
                    "@id": "http://purl.org/dc/terms/subject",
                    "@container": "@set"
                },
                "identifiers": {
                    "@id": "http://purl.org/dc/terms/identifier",
                    "@container": "@set"
                },
                "references": {
                    "@id": "http://purl.org/dc/terms/references",
                    "@container": "@set"
                },
                "isReferencedBy": {
                    "@id": "http://purl.org/dc/terms/isReferencedBy",
                    "@container": "@set"
                },
                "funding": {
                	"@id": "http://vocab.bris.ac.uk/data/repository#funding",
                    "@container": "@set"
                },
                "id": "@id",
                "doi": "http://purl.org/ontology/bibo/doi",
                "used": "http://purl.org/net/opmv/ns#used",
                "wasStartedAt": "http://purl.org/net/opmv/ns#wasStartedAt",
                "wasEndedAt": "http://purl.org/net/opmv/ns#wasEndedAt",
                "wasGeneratedBy": "http://purl.org/net/opmv/ns#wasGeneratedBy",
                "base_directory": "http://vocab.bris.ac.uk/data/repository#base-directory",
                "data_steward": "http://vocab.bris.ac.uk/data/repository#data-steward",
                "depositor": "http://vocab.bris.ac.uk/data/repository#depositor",
                "funder": "http://vocab.bris.ac.uk/data/repository#funder",
                "organisation": "http://vocab.bris.ac.uk/data/repository#organisation",
                "project": "http://vocab.bris.ac.uk/data/repository#project",
                "state": "http://vocab.bris.ac.uk/data/repository#state",
                "label": "http://www.w3.org/2000/01/rdf-schema#label",
                "sha1": "http://xmlns.com/foaf/0.1/sha1",
                "description": "http://purl.org/dc/terms/description",
                "title": "http://purl.org/dc/terms/title",
                "source": "http://purl.org/dc/terms/source",
                "alternative": "http://purl.org/dc/terms/alternative",
                "hasPart": "http://purl.org/dc/terms/hasPart",
                "issued": "http://purl.org/dc/terms/issued",
                "available": "http://purl.org/dc/terms/available",
                "created": "http://purl.org/dc/terms/created",
                "submitted": "http://purl.org/dc/terms/submitted",
                "rights": "http://purl.org/dc/terms/rights",
                "abstract": "http://purl.org/dc/terms/abstract",
                "type": "http://purl.org/dc/terms/type",
                "license": "http://purl.org/dc/terms/license",
                "dateSubmitted": "http://purl.org/dc/terms/dateSubmitted",
                "publisher": "http://purl.org/dc/terms/publisher",
                "other_licences": "http://vocab.bris.ac.uk/data/repository#other-licences",
                "includes_third_party_data": "http://vocab.bris.ac.uk/data/repository#includes-third-party-data",
                "language": "http://purl.org/dc/terms/language",
                "date": "http://purl.org/dc/terms/date",
                "extent": "http://purl.org/dc/terms/extent",
                "format": "http://purl.org/dc/terms/format",
                "hasFormat": "http://purl.org/dc/terms/hasFormat",
                "identifier": "http://schema.org/identifier"
            }

}
